
Geometry = Hexagonal

 I 	 kappa 	 Llt.
 ------------------------------------

result	62.0	1.165417	0.03674690982626995
result	58.0	1.165417	0.03674398073188061
result	54.0	1.165417	0.0367376150734017
result	50.0	1.165417	0.036724321846347545
result	63.0	1.165417	0.036747337703787256
result	59.0	1.165417	0.03674494448836333
result	55.0	1.165417	0.03673967939820496
result	64.0	1.165417	0.036747683267249726
result	51.0	1.165417	0.03672858650161025
result	60.0	1.165417	0.03674573550591592
result	56.0	1.165417	0.03674139227314051
result	52.0	1.165417	0.03673215397389788
result	65.0	1.165417	0.03674796083680571
result	61.0	1.165417	0.03674638254643639
result	57.0	1.165417	0.036742810125764316
result	66.0	1.165417	0.03674818239262068
result	53.0	1.165417	0.03673513273789485
result	70.0	1.165417	0.036748685139485926
result	74.0	1.165417	0.03674884792547504
result	78.0	1.165417	0.0367488722440632
result	67.0	1.165417	0.036748357939535736
result	71.0	1.165417	0.036748747115439385
result	75.0	1.165417	0.03674886215725668
result	68.0	1.165417	0.03674849581726219
result	72.0	1.165417	0.03674879283480142
result	79.0	1.165417	0.036748868712177044
result	76.0	1.165417	0.036748870030702374
result	80.0	1.165417	0.036748863166227844
result	69.0	1.165417	0.03674860296389724
result	73.0	1.165417	0.036748825547671185
result	77.0	1.165417	0.03674887300022044
result	81.0	1.165417	0.03674885621302133
result	82.0	1.165417	0.03674884833236419
result	86.0	1.165417	0.03674881387958922
result	90.0	1.165417	0.03674878275224712
result	94.0	1.165417	0.03674875865010714
result	83.0	1.165417	0.03674883990024738
result	87.0	1.165417	0.03674880553353621
result	91.0	1.165417	0.03674877603875577
result	84.0	1.165417	0.03674883120809862
result	88.0	1.165417	0.036748797527913525
result	92.0	1.165417	0.03674876978768034
result	95.0	1.165417	0.03674875373555277
result	96.0	1.165417	0.036748749231005046
result	93.0	1.165417	0.036748763995232026
result	89.0	1.165417	0.036748789921842495
result	85.0	1.165417	0.03674882247874127
result	97.0	1.165417	0.03674874511337795
result	102.0	1.165417	0.036748729452560795
result	106.0	1.165417	0.03674872136245785
result	98.0	1.165417	0.03674874135806498
result	110.0	1.165417	0.03674871569578331
result	107.0	1.165417	0.036748719768112996
result	103.0	1.165417	0.03674872713056624
result	99.0	1.165417	0.036748737939706656
result	108.0	1.165417	0.036748718304661414
result	104.0	1.165417	0.036748725022861244
result	100.0	1.165417	0.0367487348327686
result	109.0	1.165417	0.03674871695328436
result	105.0	1.165417	0.036748723107248166
result	101.0	1.165417	0.03674873201196546