
Geometry = Hexagonal

 I 	 kappa 	 Llt.
 ------------------------------------

result	62.0	1.1654	0.036747436997302096
result	58.0	1.1654	0.03674450656154032
result	54.0	1.1654	0.03673813869563162
result	50.0	1.1654	0.03672484181178173
result	63.0	1.1654	0.03674786511867657
result	59.0	1.1654	0.03674547071803452
result	55.0	1.1654	0.03674020367994935
result	64.0	1.1654	0.036748210897735764
result	51.0	1.1654	0.03672910756249638
result	60.0	1.1654	0.03674626208890686
result	56.0	1.1654	0.03674191713655306
result	52.0	1.1654	0.036732675998932804
result	65.0	1.1654	0.03674848865793491
result	61.0	1.1654	0.036746909441593284
result	57.0	1.1654	0.0367433355024059
result	66.0	1.1654	0.03674871038235185
result	53.0	1.1654	0.03673565561199865
result	70.0	1.1654	0.036749213630201796
result	74.0	1.1654	0.03674937672314454
result	78.0	1.1654	0.036749401229869104
result	67.0	1.1654	0.036748886078393724
result	71.0	1.1654	0.03674927569750128
result	75.0	1.1654	0.03674939101091284
result	68.0	1.1654	0.036749024088034904
result	72.0	1.1654	0.03674932149768476
result	79.0	1.1654	0.03674939773229481
result	76.0	1.1654	0.03674939893389628
result	80.0	1.1654	0.03674939221670229
result	69.0	1.1654	0.0367491313513685
result	73.0	1.1654	0.036749354282065994
result	77.0	1.1654	0.03674940194724545
result	81.0	1.1654	0.03674938529035213
result	82.0	1.1654	0.036749377433453696
result	86.0	1.1654	0.036749343051276806
result	90.0	1.1654	0.036749311967128995
result	94.0	1.1654	0.03674928789138392
result	83.0	1.1654	0.036749369022354254
result	87.0	1.1654	0.03674933471808736
result	91.0	1.1654	0.03674930526150222
result	95.0	1.1654	0.03674928298162943
result	84.0	1.1654	0.036749360348797076
result	88.0	1.1654	0.036749326723840715
result	92.0	1.1654	0.03674929901737945
result	96.0	1.1654	0.036749278481322256
result	85.0	1.1654	0.03674935163588399
result	89.0	1.1654	0.03674931912782936
result	93.0	1.1654	0.03674929323107707
result	97.0	1.1654	0.03674927436744075
result	102.0	1.1654	0.03674925871968773
result	98.0	1.1654	0.03674927061543471
result	106.0	1.1654	0.03674925063540245
result	110.0	1.1654	0.036749244972014435
result	103.0	1.1654	0.03674925639944828
result	99.0	1.1654	0.03674926719999472
result	107.0	1.1654	0.03674924904207754
result	104.0	1.1654	0.03674925429328312
result	108.0	1.1654	0.03674924757950568
result	100.0	1.1654	0.03674926409563046
result	105.0	1.1654	0.03674925237901768
result	109.0	1.1654	0.036749246228880476
result	101.0	1.1654	0.036749261277095685